Message[302] D:\DOCUMENTS\SCHOOL\STANFORD\QUARTER_1\ME218\218C\LAB9\LAB9_PROJ.X\NEWPIC_8B_GENERAL.ASM 200 : Register in operand not in bank 0.  Ensure that bank bits are correct.
Message[302] D:\DOCUMENTS\SCHOOL\STANFORD\QUARTER_1\ME218\218C\LAB9\LAB9_PROJ.X\NEWPIC_8B_GENERAL.ASM 206 : Register in operand not in bank 0.  Ensure that bank bits are correct.
Message[302] D:\DOCUMENTS\SCHOOL\STANFORD\QUARTER_1\ME218\218C\LAB9\LAB9_PROJ.X\NEWPIC_8B_GENERAL.ASM 231 : Register in operand not in bank 0.  Ensure that bank bits are correct.
Message[302] D:\DOCUMENTS\SCHOOL\STANFORD\QUARTER_1\ME218\218C\LAB9\LAB9_PROJ.X\NEWPIC_8B_GENERAL.ASM 234 : Register in operand not in bank 0.  Ensure that bank bits are correct.
Message[302] D:\DOCUMENTS\SCHOOL\STANFORD\QUARTER_1\ME218\218C\LAB9\LAB9_PROJ.X\NEWPIC_8B_GENERAL.ASM 243 : Register in operand not in bank 0.  Ensure that bank bits are correct.
Message[302] D:\DOCUMENTS\SCHOOL\STANFORD\QUARTER_1\ME218\218C\LAB9\LAB9_PROJ.X\NEWPIC_8B_GENERAL.ASM 249 : Register in operand not in bank 0.  Ensure that bank bits are correct.
Message[302] D:\DOCUMENTS\SCHOOL\STANFORD\QUARTER_1\ME218\218C\LAB9\LAB9_PROJ.X\NEWPIC_8B_GENERAL.ASM 260 : Register in operand not in bank 0.  Ensure that bank bits are correct.
Message[302] D:\DOCUMENTS\SCHOOL\STANFORD\QUARTER_1\ME218\218C\LAB9\LAB9_PROJ.X\NEWPIC_8B_GENERAL.ASM 264 : Register in operand not in bank 0.  Ensure that bank bits are correct.
Message[302] D:\DOCUMENTS\SCHOOL\STANFORD\QUARTER_1\ME218\218C\LAB9\LAB9_PROJ.X\NEWPIC_8B_GENERAL.ASM 282 : Register in operand not in bank 0.  Ensure that bank bits are correct.
Message[302] D:\DOCUMENTS\SCHOOL\STANFORD\QUARTER_1\ME218\218C\LAB9\LAB9_PROJ.X\NEWPIC_8B_GENERAL.ASM 285 : Register in operand not in bank 0.  Ensure that bank bits are correct.
Message[302] D:\DOCUMENTS\SCHOOL\STANFORD\QUARTER_1\ME218\218C\LAB9\LAB9_PROJ.X\NEWPIC_8B_GENERAL.ASM 288 : Register in operand not in bank 0.  Ensure that bank bits are correct.
Message[302] D:\DOCUMENTS\SCHOOL\STANFORD\QUARTER_1\ME218\218C\LAB9\LAB9_PROJ.X\NEWPIC_8B_GENERAL.ASM 295 : Register in operand not in bank 0.  Ensure that bank bits are correct.
Message[302] D:\DOCUMENTS\SCHOOL\STANFORD\QUARTER_1\ME218\218C\LAB9\LAB9_PROJ.X\NEWPIC_8B_GENERAL.ASM 300 : Register in operand not in bank 0.  Ensure that bank bits are correct.
Message[302] D:\DOCUMENTS\SCHOOL\STANFORD\QUARTER_1\ME218\218C\LAB9\LAB9_PROJ.X\NEWPIC_8B_GENERAL.ASM 329 : Register in operand not in bank 0.  Ensure that bank bits are correct.
Message[302] D:\DOCUMENTS\SCHOOL\STANFORD\QUARTER_1\ME218\218C\LAB9\LAB9_PROJ.X\NEWPIC_8B_GENERAL.ASM 341 : Register in operand not in bank 0.  Ensure that bank bits are correct.
Message[302] D:\DOCUMENTS\SCHOOL\STANFORD\QUARTER_1\ME218\218C\LAB9\LAB9_PROJ.X\NEWPIC_8B_GENERAL.ASM 344 : Register in operand not in bank 0.  Ensure that bank bits are correct.
Message[302] D:\DOCUMENTS\SCHOOL\STANFORD\QUARTER_1\ME218\218C\LAB9\LAB9_PROJ.X\NEWPIC_8B_GENERAL.ASM 347 : Register in operand not in bank 0.  Ensure that bank bits are correct.
Message[302] D:\DOCUMENTS\SCHOOL\STANFORD\QUARTER_1\ME218\218C\LAB9\LAB9_PROJ.X\NEWPIC_8B_GENERAL.ASM 350 : Register in operand not in bank 0.  Ensure that bank bits are correct.
Message[302] D:\DOCUMENTS\SCHOOL\STANFORD\QUARTER_1\ME218\218C\LAB9\LAB9_PROJ.X\NEWPIC_8B_GENERAL.ASM 390 : Register in operand not in bank 0.  Ensure that bank bits are correct.
Message[302] D:\DOCUMENTS\SCHOOL\STANFORD\QUARTER_1\ME218\218C\LAB9\LAB9_PROJ.X\NEWPIC_8B_GENERAL.ASM 393 : Register in operand not in bank 0.  Ensure that bank bits are correct.
Message[302] D:\DOCUMENTS\SCHOOL\STANFORD\QUARTER_1\ME218\218C\LAB9\LAB9_PROJ.X\NEWPIC_8B_GENERAL.ASM 397 : Register in operand not in bank 0.  Ensure that bank bits are correct.
Message[302] D:\DOCUMENTS\SCHOOL\STANFORD\QUARTER_1\ME218\218C\LAB9\LAB9_PROJ.X\NEWPIC_8B_GENERAL.ASM 399 : Register in operand not in bank 0.  Ensure that bank bits are correct.
Message[302] D:\DOCUMENTS\SCHOOL\STANFORD\QUARTER_1\ME218\218C\LAB9\LAB9_PROJ.X\NEWPIC_8B_GENERAL.ASM 442 : Register in operand not in bank 0.  Ensure that bank bits are correct.
Message[302] D:\DOCUMENTS\SCHOOL\STANFORD\QUARTER_1\ME218\218C\LAB9\LAB9_PROJ.X\NEWPIC_8B_GENERAL.ASM 445 : Register in operand not in bank 0.  Ensure that bank bits are correct.
Message[302] D:\DOCUMENTS\SCHOOL\STANFORD\QUARTER_1\ME218\218C\LAB9\LAB9_PROJ.X\NEWPIC_8B_GENERAL.ASM 451 : Register in operand not in bank 0.  Ensure that bank bits are correct.
Message[302] D:\DOCUMENTS\SCHOOL\STANFORD\QUARTER_1\ME218\218C\LAB9\LAB9_PROJ.X\NEWPIC_8B_GENERAL.ASM 453 : Register in operand not in bank 0.  Ensure that bank bits are correct.
Message[302] D:\DOCUMENTS\SCHOOL\STANFORD\QUARTER_1\ME218\218C\LAB9\LAB9_PROJ.X\NEWPIC_8B_GENERAL.ASM 480 : Register in operand not in bank 0.  Ensure that bank bits are correct.
Message[302] D:\DOCUMENTS\SCHOOL\STANFORD\QUARTER_1\ME218\218C\LAB9\LAB9_PROJ.X\NEWPIC_8B_GENERAL.ASM 481 : Register in operand not in bank 0.  Ensure that bank bits are correct.
Message[302] D:\DOCUMENTS\SCHOOL\STANFORD\QUARTER_1\ME218\218C\LAB9\LAB9_PROJ.X\NEWPIC_8B_GENERAL.ASM 482 : Register in operand not in bank 0.  Ensure that bank bits are correct.
Message[302] D:\DOCUMENTS\SCHOOL\STANFORD\QUARTER_1\ME218\218C\LAB9\LAB9_PROJ.X\NEWPIC_8B_GENERAL.ASM 496 : Register in operand not in bank 0.  Ensure that bank bits are correct.
Message[302] D:\DOCUMENTS\SCHOOL\STANFORD\QUARTER_1\ME218\218C\LAB9\LAB9_PROJ.X\NEWPIC_8B_GENERAL.ASM 507 : Register in operand not in bank 0.  Ensure that bank bits are correct.
Message[302] D:\DOCUMENTS\SCHOOL\STANFORD\QUARTER_1\ME218\218C\LAB9\LAB9_PROJ.X\NEWPIC_8B_GENERAL.ASM 510 : Register in operand not in bank 0.  Ensure that bank bits are correct.
Message[302] D:\DOCUMENTS\SCHOOL\STANFORD\QUARTER_1\ME218\218C\LAB9\LAB9_PROJ.X\NEWPIC_8B_GENERAL.ASM 512 : Register in operand not in bank 0.  Ensure that bank bits are correct.
Message[302] D:\DOCUMENTS\SCHOOL\STANFORD\QUARTER_1\ME218\218C\LAB9\LAB9_PROJ.X\NEWPIC_8B_GENERAL.ASM 517 : Register in operand not in bank 0.  Ensure that bank bits are correct.
Message[302] D:\DOCUMENTS\SCHOOL\STANFORD\QUARTER_1\ME218\218C\LAB9\LAB9_PROJ.X\NEWPIC_8B_GENERAL.ASM 523 : Register in operand not in bank 0.  Ensure that bank bits are correct.
Message[302] D:\DOCUMENTS\SCHOOL\STANFORD\QUARTER_1\ME218\218C\LAB9\LAB9_PROJ.X\NEWPIC_8B_GENERAL.ASM 526 : Register in operand not in bank 0.  Ensure that bank bits are correct.
Message[302] D:\DOCUMENTS\SCHOOL\STANFORD\QUARTER_1\ME218\218C\LAB9\LAB9_PROJ.X\NEWPIC_8B_GENERAL.ASM 531 : Register in operand not in bank 0.  Ensure that bank bits are correct.
Message[302] D:\DOCUMENTS\SCHOOL\STANFORD\QUARTER_1\ME218\218C\LAB9\LAB9_PROJ.X\NEWPIC_8B_GENERAL.ASM 535 : Register in operand not in bank 0.  Ensure that bank bits are correct.
Message[302] D:\DOCUMENTS\SCHOOL\STANFORD\QUARTER_1\ME218\218C\LAB9\LAB9_PROJ.X\NEWPIC_8B_GENERAL.ASM 556 : Register in operand not in bank 0.  Ensure that bank bits are correct.
Message[302] D:\DOCUMENTS\SCHOOL\STANFORD\QUARTER_1\ME218\218C\LAB9\LAB9_PROJ.X\NEWPIC_8B_GENERAL.ASM 558 : Register in operand not in bank 0.  Ensure that bank bits are correct.
Message[302] D:\DOCUMENTS\SCHOOL\STANFORD\QUARTER_1\ME218\218C\LAB9\LAB9_PROJ.X\NEWPIC_8B_GENERAL.ASM 567 : Register in operand not in bank 0.  Ensure that bank bits are correct.
