Message[302] D:\DOCUMENTS\SCHOOL\STANFORD\QUARTER_1\ME218\218C\LAB9\LAB9_PROJ.X\NEWPIC_8B_GENERAL.ASM 200 : Register in operand not in bank 0.  Ensure that bank bits are correct.
Message[302] D:\DOCUMENTS\SCHOOL\STANFORD\QUARTER_1\ME218\218C\LAB9\LAB9_PROJ.X\NEWPIC_8B_GENERAL.ASM 206 : Register in operand not in bank 0.  Ensure that bank bits are correct.
Message[302] D:\DOCUMENTS\SCHOOL\STANFORD\QUARTER_1\ME218\218C\LAB9\LAB9_PROJ.X\NEWPIC_8B_GENERAL.ASM 231 : Register in operand not in bank 0.  Ensure that bank bits are correct.
Message[302] D:\DOCUMENTS\SCHOOL\STANFORD\QUARTER_1\ME218\218C\LAB9\LAB9_PROJ.X\NEWPIC_8B_GENERAL.ASM 234 : Register in operand not in bank 0.  Ensure that bank bits are correct.
Message[302] D:\DOCUMENTS\SCHOOL\STANFORD\QUARTER_1\ME218\218C\LAB9\LAB9_PROJ.X\NEWPIC_8B_GENERAL.ASM 243 : Register in operand not in bank 0.  Ensure that bank bits are correct.
Message[302] D:\DOCUMENTS\SCHOOL\STANFORD\QUARTER_1\ME218\218C\LAB9\LAB9_PROJ.X\NEWPIC_8B_GENERAL.ASM 254 : Register in operand not in bank 0.  Ensure that bank bits are correct.
Message[302] D:\DOCUMENTS\SCHOOL\STANFORD\QUARTER_1\ME218\218C\LAB9\LAB9_PROJ.X\NEWPIC_8B_GENERAL.ASM 265 : Register in operand not in bank 0.  Ensure that bank bits are correct.
Message[302] D:\DOCUMENTS\SCHOOL\STANFORD\QUARTER_1\ME218\218C\LAB9\LAB9_PROJ.X\NEWPIC_8B_GENERAL.ASM 269 : Register in operand not in bank 0.  Ensure that bank bits are correct.
Message[302] D:\DOCUMENTS\SCHOOL\STANFORD\QUARTER_1\ME218\218C\LAB9\LAB9_PROJ.X\NEWPIC_8B_GENERAL.ASM 287 : Register in operand not in bank 0.  Ensure that bank bits are correct.
Message[302] D:\DOCUMENTS\SCHOOL\STANFORD\QUARTER_1\ME218\218C\LAB9\LAB9_PROJ.X\NEWPIC_8B_GENERAL.ASM 290 : Register in operand not in bank 0.  Ensure that bank bits are correct.
Message[302] D:\DOCUMENTS\SCHOOL\STANFORD\QUARTER_1\ME218\218C\LAB9\LAB9_PROJ.X\NEWPIC_8B_GENERAL.ASM 293 : Register in operand not in bank 0.  Ensure that bank bits are correct.
Message[302] D:\DOCUMENTS\SCHOOL\STANFORD\QUARTER_1\ME218\218C\LAB9\LAB9_PROJ.X\NEWPIC_8B_GENERAL.ASM 300 : Register in operand not in bank 0.  Ensure that bank bits are correct.
Message[302] D:\DOCUMENTS\SCHOOL\STANFORD\QUARTER_1\ME218\218C\LAB9\LAB9_PROJ.X\NEWPIC_8B_GENERAL.ASM 305 : Register in operand not in bank 0.  Ensure that bank bits are correct.
Message[302] D:\DOCUMENTS\SCHOOL\STANFORD\QUARTER_1\ME218\218C\LAB9\LAB9_PROJ.X\NEWPIC_8B_GENERAL.ASM 324 : Register in operand not in bank 0.  Ensure that bank bits are correct.
Message[302] D:\DOCUMENTS\SCHOOL\STANFORD\QUARTER_1\ME218\218C\LAB9\LAB9_PROJ.X\NEWPIC_8B_GENERAL.ASM 327 : Register in operand not in bank 0.  Ensure that bank bits are correct.
Message[302] D:\DOCUMENTS\SCHOOL\STANFORD\QUARTER_1\ME218\218C\LAB9\LAB9_PROJ.X\NEWPIC_8B_GENERAL.ASM 332 : Register in operand not in bank 0.  Ensure that bank bits are correct.
Message[302] D:\DOCUMENTS\SCHOOL\STANFORD\QUARTER_1\ME218\218C\LAB9\LAB9_PROJ.X\NEWPIC_8B_GENERAL.ASM 335 : Register in operand not in bank 0.  Ensure that bank bits are correct.
Message[302] D:\DOCUMENTS\SCHOOL\STANFORD\QUARTER_1\ME218\218C\LAB9\LAB9_PROJ.X\NEWPIC_8B_GENERAL.ASM 348 : Register in operand not in bank 0.  Ensure that bank bits are correct.
Message[302] D:\DOCUMENTS\SCHOOL\STANFORD\QUARTER_1\ME218\218C\LAB9\LAB9_PROJ.X\NEWPIC_8B_GENERAL.ASM 351 : Register in operand not in bank 0.  Ensure that bank bits are correct.
Message[302] D:\DOCUMENTS\SCHOOL\STANFORD\QUARTER_1\ME218\218C\LAB9\LAB9_PROJ.X\NEWPIC_8B_GENERAL.ASM 354 : Register in operand not in bank 0.  Ensure that bank bits are correct.
Message[302] D:\DOCUMENTS\SCHOOL\STANFORD\QUARTER_1\ME218\218C\LAB9\LAB9_PROJ.X\NEWPIC_8B_GENERAL.ASM 357 : Register in operand not in bank 0.  Ensure that bank bits are correct.
Message[302] D:\DOCUMENTS\SCHOOL\STANFORD\QUARTER_1\ME218\218C\LAB9\LAB9_PROJ.X\NEWPIC_8B_GENERAL.ASM 409 : Register in operand not in bank 0.  Ensure that bank bits are correct.
Message[302] D:\DOCUMENTS\SCHOOL\STANFORD\QUARTER_1\ME218\218C\LAB9\LAB9_PROJ.X\NEWPIC_8B_GENERAL.ASM 412 : Register in operand not in bank 0.  Ensure that bank bits are correct.
Message[302] D:\DOCUMENTS\SCHOOL\STANFORD\QUARTER_1\ME218\218C\LAB9\LAB9_PROJ.X\NEWPIC_8B_GENERAL.ASM 416 : Register in operand not in bank 0.  Ensure that bank bits are correct.
Message[302] D:\DOCUMENTS\SCHOOL\STANFORD\QUARTER_1\ME218\218C\LAB9\LAB9_PROJ.X\NEWPIC_8B_GENERAL.ASM 418 : Register in operand not in bank 0.  Ensure that bank bits are correct.
Message[302] D:\DOCUMENTS\SCHOOL\STANFORD\QUARTER_1\ME218\218C\LAB9\LAB9_PROJ.X\NEWPIC_8B_GENERAL.ASM 461 : Register in operand not in bank 0.  Ensure that bank bits are correct.
Message[302] D:\DOCUMENTS\SCHOOL\STANFORD\QUARTER_1\ME218\218C\LAB9\LAB9_PROJ.X\NEWPIC_8B_GENERAL.ASM 464 : Register in operand not in bank 0.  Ensure that bank bits are correct.
Message[302] D:\DOCUMENTS\SCHOOL\STANFORD\QUARTER_1\ME218\218C\LAB9\LAB9_PROJ.X\NEWPIC_8B_GENERAL.ASM 470 : Register in operand not in bank 0.  Ensure that bank bits are correct.
Message[302] D:\DOCUMENTS\SCHOOL\STANFORD\QUARTER_1\ME218\218C\LAB9\LAB9_PROJ.X\NEWPIC_8B_GENERAL.ASM 472 : Register in operand not in bank 0.  Ensure that bank bits are correct.
Message[302] D:\DOCUMENTS\SCHOOL\STANFORD\QUARTER_1\ME218\218C\LAB9\LAB9_PROJ.X\NEWPIC_8B_GENERAL.ASM 498 : Register in operand not in bank 0.  Ensure that bank bits are correct.
Message[302] D:\DOCUMENTS\SCHOOL\STANFORD\QUARTER_1\ME218\218C\LAB9\LAB9_PROJ.X\NEWPIC_8B_GENERAL.ASM 499 : Register in operand not in bank 0.  Ensure that bank bits are correct.
Message[302] D:\DOCUMENTS\SCHOOL\STANFORD\QUARTER_1\ME218\218C\LAB9\LAB9_PROJ.X\NEWPIC_8B_GENERAL.ASM 500 : Register in operand not in bank 0.  Ensure that bank bits are correct.
Message[302] D:\DOCUMENTS\SCHOOL\STANFORD\QUARTER_1\ME218\218C\LAB9\LAB9_PROJ.X\NEWPIC_8B_GENERAL.ASM 514 : Register in operand not in bank 0.  Ensure that bank bits are correct.
Message[302] D:\DOCUMENTS\SCHOOL\STANFORD\QUARTER_1\ME218\218C\LAB9\LAB9_PROJ.X\NEWPIC_8B_GENERAL.ASM 525 : Register in operand not in bank 0.  Ensure that bank bits are correct.
Message[302] D:\DOCUMENTS\SCHOOL\STANFORD\QUARTER_1\ME218\218C\LAB9\LAB9_PROJ.X\NEWPIC_8B_GENERAL.ASM 528 : Register in operand not in bank 0.  Ensure that bank bits are correct.
Message[302] D:\DOCUMENTS\SCHOOL\STANFORD\QUARTER_1\ME218\218C\LAB9\LAB9_PROJ.X\NEWPIC_8B_GENERAL.ASM 530 : Register in operand not in bank 0.  Ensure that bank bits are correct.
Message[302] D:\DOCUMENTS\SCHOOL\STANFORD\QUARTER_1\ME218\218C\LAB9\LAB9_PROJ.X\NEWPIC_8B_GENERAL.ASM 535 : Register in operand not in bank 0.  Ensure that bank bits are correct.
Message[302] D:\DOCUMENTS\SCHOOL\STANFORD\QUARTER_1\ME218\218C\LAB9\LAB9_PROJ.X\NEWPIC_8B_GENERAL.ASM 541 : Register in operand not in bank 0.  Ensure that bank bits are correct.
Message[302] D:\DOCUMENTS\SCHOOL\STANFORD\QUARTER_1\ME218\218C\LAB9\LAB9_PROJ.X\NEWPIC_8B_GENERAL.ASM 544 : Register in operand not in bank 0.  Ensure that bank bits are correct.
Message[302] D:\DOCUMENTS\SCHOOL\STANFORD\QUARTER_1\ME218\218C\LAB9\LAB9_PROJ.X\NEWPIC_8B_GENERAL.ASM 549 : Register in operand not in bank 0.  Ensure that bank bits are correct.
Message[302] D:\DOCUMENTS\SCHOOL\STANFORD\QUARTER_1\ME218\218C\LAB9\LAB9_PROJ.X\NEWPIC_8B_GENERAL.ASM 553 : Register in operand not in bank 0.  Ensure that bank bits are correct.
Message[302] D:\DOCUMENTS\SCHOOL\STANFORD\QUARTER_1\ME218\218C\LAB9\LAB9_PROJ.X\NEWPIC_8B_GENERAL.ASM 574 : Register in operand not in bank 0.  Ensure that bank bits are correct.
Message[302] D:\DOCUMENTS\SCHOOL\STANFORD\QUARTER_1\ME218\218C\LAB9\LAB9_PROJ.X\NEWPIC_8B_GENERAL.ASM 576 : Register in operand not in bank 0.  Ensure that bank bits are correct.
Message[302] D:\DOCUMENTS\SCHOOL\STANFORD\QUARTER_1\ME218\218C\LAB9\LAB9_PROJ.X\NEWPIC_8B_GENERAL.ASM 585 : Register in operand not in bank 0.  Ensure that bank bits are correct.
