EESchema Schematic File Version 4
EELAYER 29 0
EELAYER END
$Descr A4 11693 8268
encoding utf-8
Sheet 1 1
Title ""
Date ""
Rev ""
Comp ""
Comment1 ""
Comment2 ""
Comment3 ""
Comment4 ""
$EndDescr
$Comp
L SamacSys_Parts:PIC16F15356-E_SP IC1
U 1 1 5EA6008D
P 3250 1900
F 0 "IC1" H 4200 2165 50  0000 C CNN
F 1 "PIC16F15356-E_SP" H 4200 2074 50  0000 C CNN
F 2 "DIP794W56P254L3486H508Q28N" H 5000 2000 50  0001 L CNN
F 3 "https://componentsearchengine.com/Datasheets/1/PIC16F15356-E_SP.pdf" H 5000 1900 50  0001 L CNN
F 4 "MCU 8-bit PIC RISC 28KB Flash 3.3V 28-Pin SPDIP Tube" H 5000 1800 50  0001 L CNN "Description"
F 5 "5.08" H 5000 1700 50  0001 L CNN "Height"
F 6 "579-PIC16F15356-E/SP" H 5000 1600 50  0001 L CNN "Mouser Part Number"
F 7 "https://www.mouser.com/Search/Refine.aspx?Keyword=579-PIC16F15356-E%2FSP" H 5000 1500 50  0001 L CNN "Mouser Price/Stock"
F 8 "Microchip" H 5000 1400 50  0001 L CNN "Manufacturer_Name"
F 9 "PIC16F15356-E/SP" H 5000 1300 50  0001 L CNN "Manufacturer_Part_Number"
	1    3250 1900
	1    0    0    -1  
$EndComp
$Comp
L Connector_Generic:Conn_01x04 J1
U 1 1 5EA625CD
P 5950 1950
F 0 "J1" H 6030 1942 50  0000 L CNN
F 1 "CP2102" H 6030 1851 50  0000 L CNN
F 2 "" H 5950 1950 50  0001 C CNN
F 3 "~" H 5950 1950 50  0001 C CNN
	1    5950 1950
	1    0    0    -1  
$EndComp
$Comp
L power:+3.3V #PWR06
U 1 1 5EA63318
P 5750 1850
F 0 "#PWR06" H 5750 1700 50  0001 C CNN
F 1 "+3.3V" H 5765 2023 50  0000 C CNN
F 2 "" H 5750 1850 50  0001 C CNN
F 3 "" H 5750 1850 50  0001 C CNN
	1    5750 1850
	1    0    0    -1  
$EndComp
$Comp
L power:GND #PWR07
U 1 1 5EA6395E
P 5750 2150
F 0 "#PWR07" H 5750 1900 50  0001 C CNN
F 1 "GND" H 5755 1977 50  0000 C CNN
F 2 "" H 5750 2150 50  0001 C CNN
F 3 "" H 5750 2150 50  0001 C CNN
	1    5750 2150
	1    0    0    -1  
$EndComp
Wire Wire Line
	3250 2000 3050 2000
Wire Wire Line
	3250 2100 3050 2100
Wire Wire Line
	5750 1950 5500 1950
Wire Wire Line
	5750 2050 5500 2050
Text Label 5500 1950 0    50   ~ 0
Tx
Text Label 5500 2050 0    50   ~ 0
Rx
Text Label 3050 2000 0    50   ~ 0
Tx
Text Label 3050 2100 0    50   ~ 0
Rx
$Comp
L power:+3.3V #PWR02
U 1 1 5EA665B7
P 5300 2700
F 0 "#PWR02" H 5300 2550 50  0001 C CNN
F 1 "+3.3V" H 5315 2873 50  0000 C CNN
F 2 "" H 5300 2700 50  0001 C CNN
F 3 "" H 5300 2700 50  0001 C CNN
	1    5300 2700
	1    0    0    -1  
$EndComp
Wire Wire Line
	5150 2700 5300 2700
$Comp
L power:GND #PWR03
U 1 1 5EA66D2D
P 5300 2800
F 0 "#PWR03" H 5300 2550 50  0001 C CNN
F 1 "GND" H 5305 2627 50  0000 C CNN
F 2 "" H 5300 2800 50  0001 C CNN
F 3 "" H 5300 2800 50  0001 C CNN
	1    5300 2800
	1    0    0    -1  
$EndComp
Wire Wire Line
	5150 2800 5300 2800
$Comp
L power:GND #PWR01
U 1 1 5EA6725C
P 3000 2600
F 0 "#PWR01" H 3000 2350 50  0001 C CNN
F 1 "GND" H 3005 2427 50  0000 C CNN
F 2 "" H 3000 2600 50  0001 C CNN
F 3 "" H 3000 2600 50  0001 C CNN
	1    3000 2600
	1    0    0    -1  
$EndComp
Wire Wire Line
	3000 2600 3250 2600
$Comp
L power:+3.3V #PWR04
U 1 1 5EA67EDB
P 5650 2650
F 0 "#PWR04" H 5650 2500 50  0001 C CNN
F 1 "+3.3V" H 5665 2823 50  0000 C CNN
F 2 "" H 5650 2650 50  0001 C CNN
F 3 "" H 5650 2650 50  0001 C CNN
	1    5650 2650
	1    0    0    -1  
$EndComp
$Comp
L power:GND #PWR05
U 1 1 5EA6819B
P 5650 2950
F 0 "#PWR05" H 5650 2700 50  0001 C CNN
F 1 "GND" H 5655 2777 50  0000 C CNN
F 2 "" H 5650 2950 50  0001 C CNN
F 3 "" H 5650 2950 50  0001 C CNN
	1    5650 2950
	1    0    0    -1  
$EndComp
$Comp
L Device:C C1
U 1 1 5EA684A0
P 5650 2800
F 0 "C1" H 5765 2846 50  0000 L CNN
F 1 "0.1u" H 5765 2755 50  0000 L CNN
F 2 "" H 5688 2650 50  0001 C CNN
F 3 "~" H 5650 2800 50  0001 C CNN
	1    5650 2800
	1    0    0    -1  
$EndComp
$EndSCHEMATC
